pid,technique,size,row,col,target_x,target_y,target_w,target_h,client_w,client_h,repetition,duration
1,subdiv_key,3,0,1,718.5,133.5,3,3,1920,1080,1,4552
1,subdiv_key,3,1,2,1198.5,403.5,3,3,1920,1080,1,5696
1,subdiv_key,3,3,3,1678.5,943.5,3,3,1920,1080,1,5049
1,subdiv_key,3,2,2,1198.5,673.5,3,3,1920,1080,1,4128
1,subdiv_key,3,1,3,1678.5,403.5,3,3,1920,1080,1,5368
1,subdiv_key,3,3,2,1198.5,943.5,3,3,1920,1080,1,4504
1,subdiv_key,3,1,1,718.5,403.5,3,3,1920,1080,1,4368
1,subdiv_key,3,1,0,238.5,403.5,3,3,1920,1080,1,4048
1,subdiv_key,3,2,3,1678.5,673.5,3,3,1920,1080,1,4528
1,subdiv_key,3,2,1,718.5,673.5,3,3,1920,1080,1,3567
1,subdiv_key,3,3,0,238.5,943.5,3,3,1920,1080,1,4209
1,subdiv_key,3,0,3,1678.5,133.5,3,3,1920,1080,1,5064
1,subdiv_key,3,3,1,718.5,943.5,3,3,1920,1080,1,4952
1,subdiv_key,3,0,0,238.5,133.5,3,3,1920,1080,1,4168
1,subdiv_key,3,0,2,1198.5,133.5,3,3,1920,1080,1,5015
1,subdiv_key,3,2,0,238.5,673.5,3,3,1920,1080,1,4511
1,subdiv_key,3,0,3,1678.5,133.5,3,3,1920,1080,2,4176
1,subdiv_key,3,1,1,718.5,403.5,3,3,1920,1080,2,4016
1,subdiv_key,3,2,2,1198.5,673.5,3,3,1920,1080,2,3560
1,subdiv_key,3,2,1,718.5,673.5,3,3,1920,1080,2,3896
1,subdiv_key,3,0,0,238.5,133.5,3,3,1920,1080,2,3536
1,subdiv_key,3,3,3,1678.5,943.5,3,3,1920,1080,2,3440
1,subdiv_key,3,1,2,1198.5,403.5,3,3,1920,1080,2,4888
1,subdiv_key,3,0,1,718.5,133.5,3,3,1920,1080,2,6880
1,subdiv_key,3,2,3,1678.5,673.5,3,3,1920,1080,2,6848
1,subdiv_key,3,3,0,238.5,943.5,3,3,1920,1080,2,3952
1,subdiv_key,3,1,3,1678.5,403.5,3,3,1920,1080,2,5304
1,subdiv_key,3,3,2,1198.5,943.5,3,3,1920,1080,2,4727
1,subdiv_key,3,1,0,238.5,403.5,3,3,1920,1080,2,4152
1,subdiv_key,3,0,2,1198.5,133.5,3,3,1920,1080,2,3911
1,subdiv_key,3,2,0,238.5,673.5,3,3,1920,1080,2,4345
1,subdiv_key,3,3,1,718.5,943.5,3,3,1920,1080,2,3576
1,subdiv_key,3,1,0,238.5,403.5,3,3,1920,1080,3,3784
1,subdiv_key,3,3,2,1198.5,943.5,3,3,1920,1080,3,4352
1,subdiv_key,3,0,2,1198.5,133.5,3,3,1920,1080,3,4624
1,subdiv_key,3,3,1,718.5,943.5,3,3,1920,1080,3,3455
1,subdiv_key,3,2,2,1198.5,673.5,3,3,1920,1080,3,4248
1,subdiv_key,3,0,1,718.5,133.5,3,3,1920,1080,3,4032
1,subdiv_key,3,3,3,1678.5,943.5,3,3,1920,1080,3,4352
1,subdiv_key,3,2,3,1678.5,673.5,3,3,1920,1080,3,4160
1,subdiv_key,3,1,1,718.5,403.5,3,3,1920,1080,3,4408
1,subdiv_key,3,2,1,718.5,673.5,3,3,1920,1080,3,3104
1,subdiv_key,3,0,0,238.5,133.5,3,3,1920,1080,3,3728
1,subdiv_key,3,2,0,238.5,673.5,3,3,1920,1080,3,6792
1,subdiv_key,3,0,3,1678.5,133.5,3,3,1920,1080,3,5096
1,subdiv_key,3,1,2,1198.5,403.5,3,3,1920,1080,3,3280
1,subdiv_key,3,3,0,238.5,943.5,3,3,1920,1080,3,3623
1,subdiv_key,3,1,3,1678.5,403.5,3,3,1920,1080,3,4016
1,subdiv_key,10,2,1,715,670,10,10,1920,1080,1,4008
1,subdiv_key,10,3,0,235,940,10,10,1920,1080,1,2520
1,subdiv_key,10,2,0,235,670,10,10,1920,1080,1,3352
1,subdiv_key,10,3,1,715,940,10,10,1920,1080,1,3240
1,subdiv_key,10,1,2,1195,400,10,10,1920,1080,1,3561
1,subdiv_key,10,3,2,1195,940,10,10,1920,1080,1,3920
1,subdiv_key,10,1,1,715,400,10,10,1920,1080,1,3401
1,subdiv_key,10,2,2,1195,670,10,10,1920,1080,1,3657
1,subdiv_key,10,1,0,235,400,10,10,1920,1080,1,3104
1,subdiv_key,10,0,1,715,130,10,10,1920,1080,1,4160
1,subdiv_key,10,1,3,1675,400,10,10,1920,1080,1,3128
1,subdiv_key,10,2,3,1675,670,10,10,1920,1080,1,3111
1,subdiv_key,10,3,3,1675,940,10,10,1920,1080,1,3384
1,subdiv_key,10,0,0,235,130,10,10,1920,1080,1,3136
1,subdiv_key,10,0,3,1675,130,10,10,1920,1080,1,3200
1,subdiv_key,10,0,2,1195,130,10,10,1920,1080,1,3680
1,subdiv_key,10,0,3,1675,130,10,10,1920,1080,2,2480
1,subdiv_key,10,1,3,1675,400,10,10,1920,1080,2,2456
1,subdiv_key,10,0,0,235,130,10,10,1920,1080,2,2568
1,subdiv_key,10,1,0,235,400,10,10,1920,1080,2,2680
1,subdiv_key,10,1,2,1195,400,10,10,1920,1080,2,3400
1,subdiv_key,10,3,1,715,940,10,10,1920,1080,2,4424
1,subdiv_key,10,3,0,235,940,10,10,1920,1080,2,3016
1,subdiv_key,10,0,2,1195,130,10,10,1920,1080,2,3272
1,subdiv_key,10,1,1,715,400,10,10,1920,1080,2,3665
1,subdiv_key,10,2,2,1195,670,10,10,1920,1080,2,3696
1,subdiv_key,10,0,1,715,130,10,10,1920,1080,2,3944
1,subdiv_key,10,3,2,1195,940,10,10,1920,1080,2,3992
1,subdiv_key,10,2,0,235,670,10,10,1920,1080,2,2928
1,subdiv_key,10,2,3,1675,670,10,10,1920,1080,2,2288
1,subdiv_key,10,2,1,715,670,10,10,1920,1080,2,52449
1,subdiv_key,10,3,3,1675,940,10,10,1920,1080,2,7048
1,subdiv_key,10,2,3,1675,670,10,10,1920,1080,3,2816
1,subdiv_key,10,1,1,715,400,10,10,1920,1080,3,3408
1,subdiv_key,10,3,0,235,940,10,10,1920,1080,3,2384
1,subdiv_key,10,3,3,1675,940,10,10,1920,1080,3,2312
1,subdiv_key,10,1,2,1195,400,10,10,1920,1080,3,3320
1,subdiv_key,10,1,0,235,400,10,10,1920,1080,3,2840
1,subdiv_key,10,2,0,235,670,10,10,1920,1080,3,2695
1,subdiv_key,10,0,1,715,130,10,10,1920,1080,3,2856
1,subdiv_key,10,0,0,235,130,10,10,1920,1080,3,2264
1,subdiv_key,10,2,2,1195,670,10,10,1920,1080,3,3024
1,subdiv_key,10,0,3,1675,130,10,10,1920,1080,3,2416
1,subdiv_key,10,1,3,1675,400,10,10,1920,1080,3,2560
1,subdiv_key,10,3,1,715,940,10,10,1920,1080,3,3808
1,subdiv_key,10,0,2,1195,130,10,10,1920,1080,3,3568
1,subdiv_key,10,2,1,715,670,10,10,1920,1080,3,3287
1,subdiv_key,10,3,2,1195,940,10,10,1920,1080,3,3608
1,subdiv_key,15,0,2,1192.5,127.5,15,15,1920,1080,1,4096
1,subdiv_key,15,2,2,1192.5,667.5,15,15,1920,1080,1,4416
1,subdiv_key,15,3,0,232.5,937.5,15,15,1920,1080,1,3160
1,subdiv_key,15,0,0,232.5,127.5,15,15,1920,1080,1,2472
1,subdiv_key,15,1,0,232.5,397.5,15,15,1920,1080,1,2313
1,subdiv_key,15,1,3,1672.5,397.5,15,15,1920,1080,1,2368
1,subdiv_key,15,1,1,712.5,397.5,15,15,1920,1080,1,3848
1,subdiv_key,15,2,3,1672.5,667.5,15,15,1920,1080,1,4832
1,subdiv_key,15,3,3,1672.5,937.5,15,15,1920,1080,1,2449
1,subdiv_key,15,0,1,712.5,127.5,15,15,1920,1080,1,6400
1,subdiv_key,15,0,3,1672.5,127.5,15,15,1920,1080,1,2752
1,subdiv_key,15,2,0,232.5,667.5,15,15,1920,1080,1,2856
1,subdiv_key,15,3,1,712.5,937.5,15,15,1920,1080,1,2768
1,subdiv_key,15,1,2,1192.5,397.5,15,15,1920,1080,1,2625
1,subdiv_key,15,2,1,712.5,667.5,15,15,1920,1080,1,2400
1,subdiv_key,15,3,2,1192.5,937.5,15,15,1920,1080,1,2640
1,subdiv_key,15,3,1,712.5,937.5,15,15,1920,1080,2,2776
1,subdiv_key,15,2,1,712.5,667.5,15,15,1920,1080,2,2336
1,subdiv_key,15,3,2,1192.5,937.5,15,15,1920,1080,2,2528
1,subdiv_key,15,1,3,1672.5,397.5,15,15,1920,1080,2,3376
1,subdiv_key,15,3,0,232.5,937.5,15,15,1920,1080,2,2720
1,subdiv_key,15,0,1,712.5,127.5,15,15,1920,1080,2,2848
1,subdiv_key,15,0,3,1672.5,127.5,15,15,1920,1080,2,2440
1,subdiv_key,15,2,3,1672.5,667.5,15,15,1920,1080,2,2526
1,subdiv_key,15,2,2,1192.5,667.5,15,15,1920,1080,2,2960
1,subdiv_key,15,1,0,232.5,397.5,15,15,1920,1080,2,2480
1,subdiv_key,15,2,0,232.5,667.5,15,15,1920,1080,2,2704
1,subdiv_key,15,1,2,1192.5,397.5,15,15,1920,1080,2,2512
1,subdiv_key,15,0,0,232.5,127.5,15,15,1920,1080,2,2432
1,subdiv_key,15,3,3,1672.5,937.5,15,15,1920,1080,2,2560
1,subdiv_key,15,1,1,712.5,397.5,15,15,1920,1080,2,3280
1,subdiv_key,15,0,2,1192.5,127.5,15,15,1920,1080,2,2408
1,subdiv_key,15,0,0,232.5,127.5,15,15,1920,1080,3,2536
1,subdiv_key,15,0,3,1672.5,127.5,15,15,1920,1080,3,2344
1,subdiv_key,15,3,3,1672.5,937.5,15,15,1920,1080,3,2296
1,subdiv_key,15,0,2,1192.5,127.5,15,15,1920,1080,3,4024
1,subdiv_key,15,1,0,232.5,397.5,15,15,1920,1080,3,2440
1,subdiv_key,15,1,2,1192.5,397.5,15,15,1920,1080,3,2960
1,subdiv_key,15,3,1,712.5,937.5,15,15,1920,1080,3,3112
1,subdiv_key,15,3,0,232.5,937.5,15,15,1920,1080,3,2240
1,subdiv_key,15,2,1,712.5,667.5,15,15,1920,1080,3,2745
1,subdiv_key,15,1,1,712.5,397.5,15,15,1920,1080,3,3664
1,subdiv_key,15,0,1,712.5,127.5,15,15,1920,1080,3,3272
1,subdiv_key,15,1,3,1672.5,397.5,15,15,1920,1080,3,2904
1,subdiv_key,15,2,0,232.5,667.5,15,15,1920,1080,3,3352
1,subdiv_key,15,3,2,1192.5,937.5,15,15,1920,1080,3,2688
1,subdiv_key,15,2,2,1192.5,667.5,15,15,1920,1080,3,2656
1,subdiv_key,15,2,3,1672.5,667.5,15,15,1920,1080,3,2736
1,mouse,3,2,3,1678.5,673.5,3,3,1920,1080,1,1840
1,mouse,3,1,2,1198.5,403.5,3,3,1920,1080,1,1872
1,mouse,3,1,1,718.5,403.5,3,3,1920,1080,1,2073
1,mouse,3,3,3,1678.5,943.5,3,3,1920,1080,1,3056
1,mouse,3,0,3,1678.5,133.5,3,3,1920,1080,1,2928
1,mouse,3,3,2,1198.5,943.5,3,3,1920,1080,1,4713
1,mouse,3,3,1,718.5,943.5,3,3,1920,1080,1,2256
1,mouse,3,2,0,238.5,673.5,3,3,1920,1080,1,2953
1,mouse,3,2,1,718.5,673.5,3,3,1920,1080,1,2065
1,mouse,3,3,0,238.5,943.5,3,3,1920,1080,1,3465
1,mouse,3,1,3,1678.5,403.5,3,3,1920,1080,1,2233
1,mouse,3,0,1,718.5,133.5,3,3,1920,1080,1,2432
1,mouse,3,1,0,238.5,403.5,3,3,1920,1080,1,3000
1,mouse,3,0,2,1198.5,133.5,3,3,1920,1080,1,2608
1,mouse,3,2,2,1198.5,673.5,3,3,1920,1080,1,2840
1,mouse,3,0,0,238.5,133.5,3,3,1920,1080,1,2432
1,mouse,3,1,2,1198.5,403.5,3,3,1920,1080,2,1912
1,mouse,3,3,0,238.5,943.5,3,3,1920,1080,2,1976
1,mouse,3,0,2,1198.5,133.5,3,3,1920,1080,2,2432
1,mouse,3,1,1,718.5,403.5,3,3,1920,1080,2,1872
1,mouse,3,2,1,718.5,673.5,3,3,1920,1080,2,2279
1,mouse,3,1,0,238.5,403.5,3,3,1920,1080,2,4216
1,mouse,3,3,3,1678.5,943.5,3,3,1920,1080,2,2519
1,mouse,3,3,1,718.5,943.5,3,3,1920,1080,2,4280
1,mouse,3,3,2,1198.5,943.5,3,3,1920,1080,2,3473
1,mouse,3,2,0,238.5,673.5,3,3,1920,1080,2,1785
1,mouse,3,2,2,1198.5,673.5,3,3,1920,1080,2,1736
1,mouse,3,0,1,718.5,133.5,3,3,1920,1080,2,2080
1,mouse,3,0,3,1678.5,133.5,3,3,1920,1080,2,1936
1,mouse,3,0,0,238.5,133.5,3,3,1920,1080,2,2704
1,mouse,3,2,3,1678.5,673.5,3,3,1920,1080,2,2040
1,mouse,3,1,3,1678.5,403.5,3,3,1920,1080,2,3425
1,mouse,3,2,1,718.5,673.5,3,3,1920,1080,3,6217
1,mouse,3,0,2,1198.5,133.5,3,3,1920,1080,3,2297
1,mouse,3,0,1,718.5,133.5,3,3,1920,1080,3,2384
1,mouse,3,3,3,1678.5,943.5,3,3,1920,1080,3,2999
1,mouse,3,0,0,238.5,133.5,3,3,1920,1080,3,3065
1,mouse,3,3,0,238.5,943.5,3,3,1920,1080,3,2281
1,mouse,3,1,3,1678.5,403.5,3,3,1920,1080,3,4825
1,mouse,3,1,2,1198.5,403.5,3,3,1920,1080,3,2656
1,mouse,3,1,0,238.5,403.5,3,3,1920,1080,3,4872
1,mouse,3,3,2,1198.5,943.5,3,3,1920,1080,3,2369
1,mouse,3,2,3,1678.5,673.5,3,3,1920,1080,3,2312
1,mouse,3,1,1,718.5,403.5,3,3,1920,1080,3,2140
1,mouse,3,0,3,1678.5,133.5,3,3,1920,1080,3,3288
1,mouse,3,3,1,718.5,943.5,3,3,1920,1080,3,2928
1,mouse,3,2,0,238.5,673.5,3,3,1920,1080,3,2408
1,mouse,3,2,2,1198.5,673.5,3,3,1920,1080,3,3079
1,mouse,10,2,1,715,670,10,10,1920,1080,1,1320
1,mouse,10,1,3,1675,400,10,10,1920,1080,1,1601
1,mouse,10,1,1,715,400,10,10,1920,1080,1,1377
1,mouse,10,2,3,1675,670,10,10,1920,1080,1,1504
1,mouse,10,0,0,235,130,10,10,1920,1080,1,1289
1,mouse,10,0,2,1195,130,10,10,1920,1080,1,1703
1,mouse,10,2,2,1195,670,10,10,1920,1080,1,1160
1,mouse,10,3,1,715,940,10,10,1920,1080,1,1913
1,mouse,10,0,1,715,130,10,10,1920,1080,1,1497
1,mouse,10,1,2,1195,400,10,10,1920,1080,1,1545
1,mouse,10,0,3,1675,130,10,10,1920,1080,1,1727
1,mouse,10,2,0,235,670,10,10,1920,1080,1,1551
1,mouse,10,3,2,1195,940,10,10,1920,1080,1,1657
1,mouse,10,3,3,1675,940,10,10,1920,1080,1,1528
1,mouse,10,1,0,235,400,10,10,1920,1080,1,1744
1,mouse,10,3,0,235,940,10,10,1920,1080,1,1632
1,mouse,10,1,1,715,400,10,10,1920,1080,2,1537
1,mouse,10,0,3,1675,130,10,10,1920,1080,2,1616
1,mouse,10,1,3,1675,400,10,10,1920,1080,2,1657
1,mouse,10,1,2,1195,400,10,10,1920,1080,2,1256
1,mouse,10,0,1,715,130,10,10,1920,1080,2,1769
1,mouse,10,0,0,235,130,10,10,1920,1080,2,1616
1,mouse,10,0,2,1195,130,10,10,1920,1080,2,1584
1,mouse,10,1,0,235,400,10,10,1920,1080,2,1777
1,mouse,10,2,3,1675,670,10,10,1920,1080,2,1472
1,mouse,10,2,0,235,670,10,10,1920,1080,2,1345
1,mouse,10,3,3,1675,940,10,10,1920,1080,2,1296
1,mouse,10,3,2,1195,940,10,10,1920,1080,2,1529
1,mouse,10,3,0,235,940,10,10,1920,1080,2,1561
1,mouse,10,2,2,1195,670,10,10,1920,1080,2,1329
1,mouse,10,2,1,715,670,10,10,1920,1080,2,1480
1,mouse,10,3,1,715,940,10,10,1920,1080,2,1845
1,mouse,10,1,3,1675,400,10,10,1920,1080,3,1728
1,mouse,10,2,2,1195,670,10,10,1920,1080,3,1721
1,mouse,10,0,2,1195,130,10,10,1920,1080,3,1255
1,mouse,10,1,2,1195,400,10,10,1920,1080,3,1425
1,mouse,10,2,1,715,670,10,10,1920,1080,3,1513
1,mouse,10,3,3,1675,940,10,10,1920,1080,3,1472
1,mouse,10,3,0,235,940,10,10,1920,1080,3,1736
1,mouse,10,0,1,715,130,10,10,1920,1080,3,1416
1,mouse,10,2,0,235,670,10,10,1920,1080,3,1584
1,mouse,10,3,2,1195,940,10,10,1920,1080,3,1400
1,mouse,10,1,0,235,400,10,10,1920,1080,3,1336
1,mouse,10,3,1,715,940,10,10,1920,1080,3,1320
1,mouse,10,0,3,1675,130,10,10,1920,1080,3,1488
1,mouse,10,1,1,715,400,10,10,1920,1080,3,1400
1,mouse,10,0,0,235,130,10,10,1920,1080,3,1632
1,mouse,10,2,3,1675,670,10,10,1920,1080,3,1592
1,mouse,15,2,2,1192.5,667.5,15,15,1920,1080,1,1073
1,mouse,15,2,0,232.5,667.5,15,15,1920,1080,1,1384
1,mouse,15,2,3,1672.5,667.5,15,15,1920,1080,1,1112
1,mouse,15,2,1,712.5,667.5,15,15,1920,1080,1,1079
1,mouse,15,0,0,232.5,127.5,15,15,1920,1080,1,1512
1,mouse,15,0,1,712.5,127.5,15,15,1920,1080,1,1321
1,mouse,15,1,2,1192.5,397.5,15,15,1920,1080,1,912
1,mouse,15,1,0,232.5,397.5,15,15,1920,1080,1,1392
1,mouse,15,3,3,1672.5,937.5,15,15,1920,1080,1,1400
1,mouse,15,3,2,1192.5,937.5,15,15,1920,1080,1,1136
1,mouse,15,1,1,712.5,397.5,15,15,1920,1080,1,1144
1,mouse,15,3,1,712.5,937.5,15,15,1920,1080,1,1183
1,mouse,15,0,3,1672.5,127.5,15,15,1920,1080,1,1639
1,mouse,15,3,0,232.5,937.5,15,15,1920,1080,1,1408
1,mouse,15,1,3,1672.5,397.5,15,15,1920,1080,1,1729
1,mouse,15,0,2,1192.5,127.5,15,15,1920,1080,1,1720
1,mouse,15,3,2,1192.5,937.5,15,15,1920,1080,2,1257
1,mouse,15,0,2,1192.5,127.5,15,15,1920,1080,2,1145
1,mouse,15,0,1,712.5,127.5,15,15,1920,1080,2,1000
1,mouse,15,3,3,1672.5,937.5,15,15,1920,1080,2,1249
1,mouse,15,1,2,1192.5,397.5,15,15,1920,1080,2,1273
1,mouse,15,0,0,232.5,127.5,15,15,1920,1080,2,1584
1,mouse,15,1,3,1672.5,397.5,15,15,1920,1080,2,1353
1,mouse,15,2,1,712.5,667.5,15,15,1920,1080,2,1281
1,mouse,15,3,0,232.5,937.5,15,15,1920,1080,2,1792
1,mouse,15,3,1,712.5,937.5,15,15,1920,1080,2,1385
1,mouse,15,0,3,1672.5,127.5,15,15,1920,1080,2,1625
1,mouse,15,2,2,1192.5,667.5,15,15,1920,1080,2,1072
1,mouse,15,1,0,232.5,397.5,15,15,1920,1080,2,1217
1,mouse,15,2,0,232.5,667.5,15,15,1920,1080,2,960
1,mouse,15,2,3,1672.5,667.5,15,15,1920,1080,2,1313
1,mouse,15,1,1,712.5,397.5,15,15,1920,1080,2,1409
1,mouse,15,1,2,1192.5,397.5,15,15,1920,1080,3,1472
1,mouse,15,2,0,232.5,667.5,15,15,1920,1080,3,1160
1,mouse,15,0,0,232.5,127.5,15,15,1920,1080,3,1489
1,mouse,15,0,2,1192.5,127.5,15,15,1920,1080,3,1561
1,mouse,15,1,1,712.5,397.5,15,15,1920,1080,3,1327
1,mouse,15,0,1,712.5,127.5,15,15,1920,1080,3,1168
1,mouse,15,2,1,712.5,667.5,15,15,1920,1080,3,1208
1,mouse,15,1,0,232.5,397.5,15,15,1920,1080,3,1313
1,mouse,15,3,1,712.5,937.5,15,15,1920,1080,3,1297
1,mouse,15,3,3,1672.5,937.5,15,15,1920,1080,3,1840
1,mouse,15,2,2,1192.5,667.5,15,15,1920,1080,3,1240
1,mouse,15,3,0,232.5,937.5,15,15,1920,1080,3,1432
1,mouse,15,1,3,1672.5,397.5,15,15,1920,1080,3,1344
1,mouse,15,0,3,1672.5,127.5,15,15,1920,1080,3,1512
1,mouse,15,3,2,1192.5,937.5,15,15,1920,1080,3,1241
1,mouse,15,2,3,1672.5,667.5,15,15,1920,1080,3,1169
